 Volume in drive C is OS
 Volume Serial Number is 8A9B-A0CD

 Directory of C:\Civil

12/20/2012  11:37 AM           316,210 adjust.app
01/06/2011  12:13 PM           861,286 AppCopy.app
08/16/2010  01:30 PM            44,904 AppRequest.app
08/12/2010  10:23 AM           394,312 AppTracker.app
07/22/2013  07:41 AM           371,216 Attorney.app
01/31/2013  09:57 AM            99,360 Attyrpt.app
05/20/2008  01:51 PM            32,969 AutoLoad.app
10/30/2013  09:21 AM         2,233,958 Bookmenu.app
11/08/2010  11:06 AM           112,666 Calendar.app
09/23/2013  01:41 PM            49,210 CantonQuickSetup.app
03/17/2011  09:26 AM            78,462 Casebook.app
08/31/2012  12:02 PM           216,492 casemast.app
05/02/2013  09:58 AM           382,350 CDismiss.app
09/07/2010  02:31 PM           325,752 CertMail_Master.app
04/03/2013  01:19 PM           673,152 Check.app
04/27/2012  11:40 AM           251,930 Checkrpt.app
08/17/2010  10:58 AM           109,606 Checkrpt2.app
11/08/2010  02:17 PM            73,986 Codesrpt.app
07/10/2012  12:02 PM           190,454 cvcodes.app
11/08/2010  02:19 PM            93,624 cvcredit.app
11/09/2010  03:08 PM         1,034,956 Cv_bail.app
12/30/2011  12:32 PM           190,228 Dayjour!.app
12/07/2012  12:33 PM           118,330 DayjourT.app
12/28/2012  08:33 AM           205,154 disbmast.app
07/11/2013  09:23 AM         1,064,184 Dockentr.app
08/31/2012  11:50 AM           154,728 docket.app
09/07/2010  02:31 PM           146,646 Docket2.app
09/07/2010  02:31 PM           313,516 DocketSearch.app
09/07/2010  02:31 PM           120,348 Dockrpt.app
12/16/2010  09:01 AM            77,876 dockstat.app
05/23/2013  07:15 AM           108,316 EMailMessages.app
11/08/2010  02:16 PM           118,414 Exempt.app
11/08/2010  11:59 AM           151,270 garn.app
11/08/2010  11:59 AM           151,270 garn.bak.app
12/27/2010  12:33 PM           292,934 Hearlist.app
11/08/2010  10:37 AM           495,678 IncomeTax.app
11/08/2010  09:54 AM           113,206 judges.app
11/08/2010  09:51 AM           105,932 Jurcodes.app
12/16/2010  08:50 AM            57,940 jurisd.app
11/08/2010  09:50 AM            78,180 Jurisd1.app
11/08/2010  09:26 AM           131,724 Ledger.app
02/14/2012  02:08 PM           170,768 litigant.app
09/17/2013  02:34 PM         2,599,412 LookUpI.app
07/02/2013  11:34 AM         1,944,134 Maint.app
12/21/2010  11:20 AM         1,822,184 Maint.bak.app
02/11/2013  10:51 AM           128,090 MenuScreen.app
09/11/2012  09:21 AM           448,384 Miscdock.app
09/07/2010  01:01 PM         1,255,460 mtbl.app
09/07/2010  01:01 PM            17,545 mtblhelp.app
09/07/2010  01:01 PM            44,226 mtprops.app
11/08/2010  09:01 AM           111,256 PrePaid.app
01/06/2012  03:54 PM           147,792 rcptdisb.app
08/28/2013  02:47 PM           161,678 rcptmast.app
10/28/2013  10:18 AM         3,775,662 Receipt!.app
09/07/2010  02:31 PM           249,888 RepBroker.app
11/08/2010  08:56 AM            78,524 signout.app
09/07/2010  02:31 PM            75,230 signout.bak.app
07/02/2013  02:11 PM           136,978 SpecialCalendar.app
09/07/2010  02:31 PM           109,874 Street.app
11/08/2010  08:52 AM           147,426 Strmast.app
10/17/2013  02:22 PM         5,497,370 Summons.app
09/07/2010  02:31 PM            17,900 TimeOff.app
05/23/2013  07:13 AM           120,762 Trackatt.app
02/27/2012  11:31 AM         3,882,662 Tracking.app
12/07/2012  02:46 PM           137,132 Trdisb!.app
11/08/2010  07:55 AM           149,786 TRDisbmast.app
11/08/2010  07:53 AM           138,908 TRRcptMast.app
12/07/2012  01:45 PM           257,424 trustee!.app
11/08/2010  07:45 AM           142,782 Trustee.app
10/25/2011  10:27 AM           118,894 Zip.app
              70 File(s)     36,030,860 bytes
               0 Dir(s)  200,328,507,392 bytes free
